Index and Match a Character Vector Against Another • vecvec
…
human_readable(my_vecvec)
#> # A tibble: 118 × 4
#>    original_row_id primary       lookup_id lookup_value
#>              <int> <chr>             <int> <chr>       
#>  1               2 ELIJAH MILLER         3 ELIJAH      
#>  2               2 ELIJAH MILLER        88 Miller      
#>  3               2 ELIJAH MILLER        61 ELIJAH      
#>  4               3 walker               75 WALKER      
#>  5               4 MARY                 89 Mary        
#>  6               5 Perez                25 Perez       
#>  7               6 MARTIN               45 Martin      
#>  8               7 MIA                  44 MIA         
#>  9               8 Mateo Jones          54 Mateo       
#> 10               8 Mateo Jones          36 Jones       
#> # ℹ 108 more rows
…
