…
``` r
human_readable(my_vecvec)
#> # A tibble: 159 × 4
#>    original_row_id primary         lookup_id lookup_value
#>              <int> <chr>               <int> <chr>       
#>  1               1 WILLIAM                92 Liam        
#>  2               1 WILLIAM                22 WILLIAMS    
#>  3               2 sarah                  95 sarah       
#>  4               4 ROBERT GONZALEZ        85 ROBERT      
#>  5               4 ROBERT GONZALEZ        14 GONZALEZ    
#>  6               4 ROBERT GONZALEZ        93 robert      
#>  7               5 allen                  41 allen       
#>  8               5 allen                  98 allen       
#>  9               6 linda                  18 LINDA       
#> 10               8 Joseph Moore            3 JOSEPH      
#> # ℹ 149 more rows
```
