Match Primary Vector Against Lookup Vector — vecvec • vecvec
…
lookup
A character vector to match against.

    Value

    A list containing indices and matches.

    Examples

vecvec(create_random_names(), create_random_names())
#> $indices
#> $indices$primary
#> $indices$primary$data_index
#> # A tibble: 100 × 4
#>    original_row_id unique_string_id value           stnd_string    
#>              <int>            <int> <chr>           <chr>          
#>  1               1                1 Robinson        robinson       
#>  2               2                2 AMELIA          amelia         
#>  3               3                3 SARAH WHITE     sarah white    
#>  4               4                4 ROBERT MARTINEZ robert martinez
#>  5               5                5 SUSAN JOHNSON   susan johnson  
#>  6               6                6 Barbara         barbara        
#>  7               7                7 lucas lewis     lucas lewis    
#>  8               8                8 john            john           
#>  9               9                9 charles         charles        
#> 10              10               10 LUCAS WRIGHT    lucas wright   
#> # ℹ 90 more rows
#> 
#> $indices$primary$string_index
#> # A tibble: 67 × 2
#>    stnd_string     unique_string_id
#>    <chr>                      <int>
#>  1 robinson                       1
#>  2 amelia                         2
#>  3 sarah white                    3
#>  4 robert martinez                4
#>  5 susan johnson                  5
#>  6 barbara                        6
#>  7 lucas lewis                    7
#>  8 john                           8
#>  9 charles                        9
#> 10 lucas wright                  10
#> # ℹ 57 more rows
#> 
#> 
#> $indices$lookup
#> $indices$lookup$data_index
#> # A tibble: 100 × 4
#>    original_row_id unique_string_id value            stnd_string     
#>              <int>            <int> <chr>            <chr>           
#>  1               1                1 ASHER RODRIGUEZ  asher rodriguez 
#>  2               2                2 Linda            linda           
#>  3               3                3 ramirez          ramirez         
#>  4               4                4 sarah ramirez    sarah ramirez   
#>  5               5                5 King             king            
#>  6               6                6 MICHAEL WILLIAMS michael williams
#>  7               7                7 karen            karen           
#>  8               8                8 SCOTT            scott           
#>  9               9                9 olivia jackson   olivia jackson  
#> 10              10               10 BROWN            brown           
#> # ℹ 90 more rows
#> 
#> $indices$lookup$string_index
#> # A tibble: 79 × 2
#>    stnd_string      unique_string_id
#>    <chr>                       <int>
#>  1 asher rodriguez                 1
#>  2 linda                           2
#>  3 ramirez                         3
#>  4 sarah ramirez                   4
#>  5 king                            5
#>  6 michael williams                6
#>  7 karen                           7
#>  8 scott                           8
#>  9 olivia jackson                  9
#> 10 brown                          10
#> # ℹ 69 more rows
#> 
#> 
#> 
#> $matches
#> $matches$exact_whole_string
#> # A tibble: 45 × 2
#>    unique_string_id lookup_id
#>               <int>     <int>
#>  1                2        16
#>  2                2        61
#>  3                2        73
#>  4                4        17
#>  5                8        87
#>  6                9        29
#>  7               11        43
#>  8               13        18
#>  9               13        52
#> 10               13       100
#> # ℹ 35 more rows
#> 
#> $matches$tidy_exact_tokens
#> # A tibble: 90 × 2
#>    unique_string_id lookup_id
#>               <int>     <int>
#>  1                2        16
#>  2                2        61
#>  3                2        73
#>  4                5        71
#>  5                5        50
#>  6                5        63
#>  7                7        91
#>  8                8        87
#>  9                9        29
#> 10               10        91
#> # ℹ 80 more rows
#> 
#> $matches$tidy_exact_substring
#> # A tibble: 94 × 2
#>    unique_string_id lookup_id
#>               <int>     <int>
#>  1                2        16
#>  2                2        61
#>  3                2        73
#>  4                5        71
#>  5                5        50
#>  6                5        63
#>  7                5        87
#>  8                7        91
#>  9                8        87
#> 10                9        29
#> # ℹ 84 more rows
#> 
#> $matches$tidy_fuzzies
#> # A tibble: 55 × 2
#>    unique_string_id lookup_id
#>               <int>     <int>
#>  1                2        16
#>  2                5        71
#>  3                5        50
#>  4                7        91
#>  5                8        87
#>  6                9        29
#>  7               10        91
#>  8               10        62
#>  9               11        43
#> 10               13        18
#> # ℹ 45 more rows
…
